{
  "dbhosts": [
    {
      "dbName": "gigskyNotificationGateway",
      "schema": "gigskyNotificationGateway",
      "url": "localhost",
      "port": "3305",
      "username": "root",
      "password": "root"
    }
  ]
}
