template_id,notificationType_id,eventType_id,createTime,updateTime,tenant_id
"91","3","6","2015-11-26 12:48:16","2015-11-26 12:48:16",2
"92","3","6","2015-11-26 12:48:16","2015-11-26 12:48:16",2
"93","3","8","2015-11-26 12:48:16","2015-11-26 12:48:16",2
"94","3","8","2015-11-26 12:48:16","2015-11-26 12:48:16",2